{
  "project_info": {
    "project_number": "308742973436",
    "firebase_url": "https://solitairy-ce263.firebaseio.com",
    "project_id": "solitairy-ce263",
    "storage_bucket": "solitairy-ce263.appspot.com"
  },
  "client": [
    {
      "client_info": {
        "mobilesdk_app_id": "1:308742973436:android:06a02f8d4a5912ac",
        "android_client_info": {
          "package_name": "com.realdolmen.solitairy"
        }
      },
      "oauth_client": [
        {
          "client_id": "308742973436-k7l1eoes9l9sld4dqm50f5k2pjq1d3sc.apps.googleusercontent.com",
          "client_type": 3
        }
      ],
      "api_key": [
        {
          "current_key": "AIzaSyCJybkkFzrsuKSAsBbTjG8-EVkiLhSBADQ"
        }
      ],
      "services": {
        "appinvite_service": {
          "other_platform_oauth_client": [
            {
              "client_id": "308742973436-k7l1eoes9l9sld4dqm50f5k2pjq1d3sc.apps.googleusercontent.com",
              "client_type": 3
            }
          ]
        }
      }
    }
  ],
  "configuration_version": "1"
}